Ministère nom complet;Nom du projet;Début;Durée prévisionnelle en année;Phase du projet en cours;Coût estimé
Ministère de l’Économie, des Finances et de la Souveraineté industrielle et numérique;PAYSAGE;octobre 14;9,5;Déploiement / Bilan intermédiaire;53,1
Ministère de l’Économie, des Finances et de la Souveraineté industrielle et numérique;CFVR;juillet 13;9,5;Terminé;34,5
Ministère de l’Économie, des Finances et de la Souveraineté industrielle et numérique;PILAT;juin 18;7,6;Conception / Réalisation;123,5
Ministère de l’Économie, des Finances et de la Souveraineté industrielle et numérique;GMBI;septembre 18;5,6;Conception / Réalisation;35,7
Ministère de l’Économie, des Finances et de la Souveraineté industrielle et numérique;NRP (NOUVEAU RÉSEAU DGFIP);janvier 18;5,8;Conception / Réalisation;38,5
Ministère de l’Économie, des Finances et de la Souveraineté industrielle et numérique;ROCSP;février 19;8,9;Expérimentation;96,4
Ministère de l’Économie, des Finances et de la Souveraineté industrielle et numérique;3D;février 20;3,9;Expérimentation;31,9
Ministère de l’Économie, des Finances et de la Souveraineté industrielle et numérique;TNCP;janvier 20;4,4;Expérimentation;21,1
Ministère de l’Économie, des Finances et de la Souveraineté industrielle et numérique;PCR;octobre 19;3,2;Terminé;52,8
Ministère de l’Économie, des Finances et de la Souveraineté industrielle et numérique;FRANCE SESAME;janvier 20;4;Conception / Réalisation;10,9
Ministère de l’Économie, des Finances et de la Souveraineté industrielle et numérique;FONCIER INNOVANT;novembre 20;3,2;Déploiement / Bilan intermédiaire;33,1
Ministère de l’Économie, des Finances et de la Souveraineté industrielle et numérique;FICOBA 3;novembre 20;4;Conception / Réalisation;21
Ministère de l’Économie, des Finances et de la Souveraineté industrielle et numérique;Chorus – Projet S_4HANA;septembre 22;2,1;Conception / Réalisation;87
Ministère de l’Économie, des Finances et de la Souveraineté industrielle et numérique;FACTURATION ELECTRONIQUE;mars 21;7,8;Conception / Réalisation;231
Ministère de l'Europe et des Affaires étrangères;SAPHIR;décembre 15;8;Déploiement / Bilan intermédiaire;10,4
Ministère de la Santé et de la Prévention;SI SAMU;septembre 14;10,3;Conception / Réalisation;218,4
Ministère de la Santé et de la Prévention;Mon Espace Santé;janvier 20;4;Conception / Réalisation;227,4
Ministère de la Santé et de la Prévention;ROR;janvier 21;5,5;Conception / Réalisation;24,9
Ministère de la Santé et de la Prévention;SI APA;juin 22;3,6;Conception / Réalisation;63,4
Ministère de l'Agriculture et de la Souveraineté alimentaire;EXPADON 2;janvier 13;11;Déploiement / Bilan intermédiaire;30,9
Ministère de la Culture;MISAOA;juin 20;4;Conception / Réalisation;11,2
Ministère des Armées;ARCHIPEL;avril 15;8,8;Déploiement / Bilan intermédiaire;14,3
Ministère des Armées;SOURCE WEB;janvier 14;9,8;Conception / Réalisation;15,3
Ministère des Armées;ROC;mars 16;8,1;Conception / Réalisation;15,6
Ministère des Armées;EUREKA;octobre 17;6,4;Conception / Réalisation;21,9
Ministère des Armées;SSLD-II;novembre 20;2,8;Conception / Réalisation;28,8
Ministère des Armées;SPARTA;février 18;6,3;Conception / Réalisation;15,8
Services du Premier Ministre;NOPN;janvier 21;5,5;Conception / Réalisation;26,9
Ministère de l'Éducation nationale et de la Jeunesse;OP@LE;septembre 14;11;Déploiement / Bilan intermédiaire;91,3
Ministère de l'Éducation nationale et de la Jeunesse;MIGRATION SIRH;janvier 20;5,3;Conception / Réalisation;57,9
Ministère de l'Éducation nationale et de la Jeunesse;REURBANISATION SIRH;janvier 20;5,3;Conception / Réalisation;68,7
Ministère de la Transition écologique et de la Cohésion des territoires;GEOPLATEFORME;janvier 19;5,4;Déploiement / Bilan intermédiaire;23,2
Ministère de la Transition écologique et de la Cohésion des territoires;OCSGE;septembre 19;5,8;Déploiement / Bilan intermédiaire;30,4
Ministère de la Transition écologique et de la Cohésion des territoires;GUNENV Phase 2;mars 23;4;Conception / Réalisation;37
Ministère de l'Intérieur et des Outre-mer;MCIC-2;février 15;9,9;Expérimentation;24,2
Ministère de l'Intérieur et des Outre-mer;RRF;octobre 22;8;Conception / Réalisation;900,3
Ministère de l'Intérieur et des Outre-mer;NexSIS Version 1;avril 17;8,2;Déploiement / Bilan intermédiaire;72
Ministère de l'Intérieur et des Outre-mer;ANEF;janvier 18;5,9;Déploiement / Bilan intermédiaire;54,5
Ministère de l'Intérieur et des Outre-mer;LOG-MI;septembre 17;7,8;Déploiement / Bilan intermédiaire;28,1
Ministère de l'Intérieur et des Outre-mer;ERPC;mai 19;4,8;Déploiement / Bilan intermédiaire;82,8
Ministère de l'Intérieur et des Outre-mer;KIOSQUES - PFSF;avril 20;4;Déploiement / Bilan intermédiaire;26,3
Ministère de l'Intérieur et des Outre-mer;FIN;février 20;5,3;Déploiement / Bilan intermédiaire;68,3
Ministère de l'Intérieur et des Outre-mer;SIV;février 20;En cadrage;Cadrage;En cadrage
Ministère de l'Intérieur et des Outre-mer;M@GRH;avril 21;2,8;Déploiement / Bilan intermédiaire;14
Ministère de la Justice;ASTREA;janvier 12;14;Conception / Réalisation;77,3
Ministère de la Justice;PORTALIS;mars 14;12,8;Conception / Réalisation;98,9
Ministère de la Justice;PROJAE – AXONE;juin 17;7,1;Conception / Réalisation;14,5
Ministère de la Justice;NED;janvier 18;4,8;Terminé;8,7
Ministère de la Justice;PPN;janvier 20;6;Conception / Réalisation;145,1
Ministère de la Justice;ATIGIP;janvier 20;4,4;Déploiement / Bilan intermédiaire;43,2
Ministère du Travail, du Plein emploi et de l'Insertion;SI EMPLOI;novembre 21;4;Conception / Réalisation;33
Ministère du Travail, du Plein emploi et de l'Insertion;SI FSE;janvier 20;6;Déploiement / Bilan intermédiaire;30,1
